SDS 192 Mini-Project 2
…
library(fec16)

# Look at help file
?contributions

# Note that the contributions data frame only contains the first 1000 rows:
contributions

# A tibble: 1,000 × 15
   cmte_id   amndt_ind rpt_tp transa…¹ trans…² entit…³ name  city  state zip_c…⁴
   <chr>     <chr>     <chr>  <chr>    <chr>   <chr>   <chr> <chr> <chr> <chr>  
 1 C00002766 N         M8     G2016    24K     CCM     THE … LOWE… MA    01853  
 2 C00101485 N         M7     G2016    24K     CCM     FRIE… OREF… PA    18069  
 3 C90011156 N         YE     G2016    24E     IND     BREW… SEAT… WA    981013…
 4 C00342113 N         30G    G2016    24K     CCM     RODN… TAYL… IL    62568  
 5 C90011156 N         YE     G2016    24E     IND     CONY… CINC… OH    452291…
 6 C00161786 A         30G    <NA>     24C     ORG     NATI… LEAD… CO    80461  
 7 C00497073 N         M7     G2016    24K     CCM     CATH… LAS … NV    89139  
 8 C90011156 N         Q3     G2016    24A     IND     HOWE… PITT… PA    152063…
 9 C90011156 N         Q3     G2016    24A     IND     RAHN… CLEV… OH    441205…
10 C00513531 N         Q3     G2016    24K     CCM     KIM … VEST… NY    138511…
# … with 990 more rows, 5 more variables: transaction_dt <date>,
#   transaction_amt <dbl>, other_id <chr>, cand_id <chr>, tran_id <chr>, and
#   abbreviated variable names ¹​transaction_pgi, ²​transaction_tp, ³​entity_tp,
#   ⁴​zip_code
…
ℹ Use `spec()` to retrieve the full column specification for this data.
ℹ Specify the column types or set `show_col_types = FALSE` to quiet this message.

# Now contributions has full 516,394 rows
contributions

# A tibble: 516,385 × 15
   cmte_id   amndt_ind rpt_tp transa…¹ trans…² entit…³ name  city  state zip_c…⁴
   <chr>     <chr>     <chr>  <chr>    <chr>   <chr>   <chr> <chr> <chr> <chr>  
 1 C00411116 N         M4     P2016    24K     COM     ADAM… LOS … CA    90017  
 2 C00411116 N         M4     P2016    24K     COM     COMM… SANT… CA    92706  
 3 C00411116 N         M4     P2018    24K     COM     DEB … LINC… NE    68506  
 4 C00411116 N         M4     P2018    24K     COM     FEIN… WASH… DC    20003  
 5 C00411116 N         M4     P2016    24K     COM     GALL… PHOE… AZ    85001  
 6 C00411116 N         M4     P2016    24K     COM     GRAV… CALH… GA    30703  
 7 C00411116 N         M4     P2016    24K     COM     LANG… WARW… RI    02886  
 8 C00411116 N         M4     P2016    24K     COM     MARK… PEAR… HI    96782  
 9 C00411116 N         M4     P2016    24K     COM     MCCO… ST. … MN    55114  
10 C00411116 N         M4     P2016    24K     COM     NITA… WHIT… NY    10605  
# … with 516,375 more rows, 5 more variables: transaction_dt <date>,
#   transaction_amt <dbl>, other_id <chr>, cand_id <chr>, tran_id <chr>, and
#   abbreviated variable names ¹​transaction_pgi, ²​transaction_tp, ³​entity_tp,
#   ⁴​zip_code

# Group member 1 work here!
#Which state is each contributor located?
contributors_loc_donations <-
  contributions |>
  select(cand_id, name, state, transaction_amt, transaction_tp, tran_id) |>
  filter(transaction_tp == "24E") |>
  arrange(desc(transaction_amt))

contributors_loc_donations

# A tibble: 140,044 × 6
   cand_id   name                    state transaction_amt transaction…¹ tran_id
   <chr>     <chr>                   <chr>           <dbl> <chr>         <chr>  
 1 P80001571 STARBOARD STRATEGIC     VA            7209482 24E           F57.63…
 2 P60008059 OATH STRATEGIES LLC     VA            6666566 24E           SE24.1…
 3 P60008059 OATH STRATEGIES LLC     VA            4537678 24E           SE24.0…
 4 P60008059 OATH STRATEGIES LLC     VA            4423057 24E           SE24.1…
 5 P60008059 OATH STRATEGIES LLC     VA            4173234 24E           SE24.1…
 6 P60008059 OATH STRATEGIES LLC     VA            4125000 24E           SE24.0…
 7 P80001571 TANGIBLE MEDIA INC      NY            3000000 24E           SE24.9…
 8 P60008059 OATH STRATEGIES LLC     VA            2970074 24E           SE24.1…
 9 P60006723 TARGET ENTERPRISES, LLC CA            2758566 24E           SE.6793
10 P60008059 OATH STRATEGIES LLC     VA            2571000 24E           SE24.0…
# … with 140,034 more rows, and abbreviated variable name ¹​transaction_tp

# Group member 2 work here!

#Which state is each candidate located?
candidate_loc_donations <- 
  candidates |>
  select(cand_id, cand_name, cand_st)

candidate_loc_donations

# A tibble: 4,699 × 3
   cand_id   cand_name                cand_st
   <chr>     <chr>                    <chr>  
 1 H0AL02087 ROBY, MARTHA             AL     
 2 H0AL02095 JOHN, ROBERT E JR        AL     
 3 H0AL05163 BROOKS, MO               AL     
 4 H0AL07086 SEWELL, TERRYCINA ANDREA AL     
 5 H0AR01083 CRAWFORD, ERIC ALAN RICK AR     
 6 H0AR03055 WOMACK, STEVE            AR     
 7 H0AZ01259 GOSAR, PAUL DR.          AZ     
 8 H0CA03078 BERA, AMERISH            CA     
 9 H0CA10073 DESAULNIER, MARK         CA     
10 H0CA10149 GARAMENDI, JOHN          DC     
# … with 4,689 more rows
…
